{
    "version": "https://jsonfeed.org/version/1",
    "title": "Blog",
    "description": "",
    "home_page_url": "https://opensource25.gitlab.io/blog",
    "feed_url": "https://opensource25.gitlab.io/blog/feed.json",
    "user_comment": "",
    "author": {
        "name": "opensource25"
    },
    "items": [
    ]
}
